(0, u'0.018*"vote" + 0.015*"huffingtonpost" + 0.014*"hillary" + 0.014*"entry" + 0.013*"news" + 0.013*"clinton" + 0.012*"ncid" + 0.011*"engmodushpmg" + 0.009*"presidential" + 0.008*"breaking"')
(1, u'0.020*"america" + 0.018*"utm_source" + 0.017*"utm_medium" + 0.010*"vote" + 0.010*"ly" + 0.009*"utm_campaign" + 0.009*"president" + 0.008*"please" + 0.008*"get" + 0.007*"w"')
(2, u'0.013*"right" + 0.010*"obama" + 0.008*"john" + 0.008*"barack" + 0.008*"change" + 0.008*"president" + 0.007*"think" + 0.007*"things" + 0.007*"donaldtrump" + 0.006*"way"')
(3, u'0.034*"rally" + 0.034*"live" + 0.021*"watch" + 0.020*"stream" + 0.010*"pa" + 0.009*"florida" + 0.009*"washington" + 0.009*"north" + 0.009*"hershey" + 0.008*"carolina"')
(4, u'0.017*"fuck" + 0.012*"president" + 0.011*"donaldtrump" + 0.009*"status" + 0.009*"ted" + 0.008*"people" + 0.007*"cruz" + 0.007*"shit" + 0.007*"pence" + 0.006*"z"')
(5, u'0.015*"back" + 0.011*"supporters" + 0.009*"news" + 0.008*"voters" + 0.007*"pay" + 0.007*"transition" + 0.007*"everything" + 0.007*"team" + 0.006*"university" + 0.006*"national"')
(6, u'0.027*"hillary" + 0.026*"clinton" + 0.024*"video" + 0.017*"liked" + 0.015*"ly" + 0.012*"bit" + 0.008*"interview" + 0.008*"plans" + 0.007*"presidential" + 0.007*"j"')
(7, u'0.033*"new" + 0.019*"york" + 0.015*"win" + 0.013*"clinton" + 0.012*"hillary" + 0.010*"times" + 0.009*"voting" + 0.009*"must" + 0.007*"n" + 0.007*"victory"')
(8, u'0.016*"like" + 0.011*"story" + 0.010*"people" + 0.010*"full" + 0.008*"speech" + 0.007*"see" + 0.007*"stand" + 0.007*"paul" + 0.007*"stop" + 0.007*"woman"')
(9, u'0.017*"election" + 0.015*"news" + 0.013*"protest" + 0.012*"clinton" + 0.010*"mike" + 0.008*"politics" + 0.008*"anthem" + 0.008*"hillary" + 0.008*"evans" + 0.008*"open"')
(10, u'0.026*"president" + 0.016*"make" + 0.014*"breitbart" + 0.013*"america" + 0.013*"great" + 0.013*"us" + 0.008*"plan" + 0.008*"race" + 0.007*"immigration" + 0.007*"public"')
(11, u'0.026*"white" + 0.022*"president" + 0.019*"st" + 0.017*"house" + 0.011*"victory" + 0.010*"news" + 0.008*"chief" + 0.008*"ms" + 0.007*"nyti" + 0.006*"theguardian"')
(12, u'0.022*"news" + 0.019*"president" + 0.016*"election" + 0.016*"us" + 0.015*"donaldtrump" + 0.015*"co" + 0.014*"uk" + 0.011*"world" + 0.008*"p" + 0.008*"independent"')
(13, u'0.013*"us" + 0.013*"election" + 0.012*"hate" + 0.011*"president" + 0.011*"wins" + 0.009*"dlvr" + 0.008*"says" + 0.007*"leave" + 0.007*"putin" + 0.006*"photo"')
(14, u'0.025*"president" + 0.012*"news" + 0.009*"obama" + 0.009*"new" + 0.008*"immigrants" + 0.008*"deport" + 0.007*"meeting" + 0.007*"plan" + 0.007*"cnn" + 0.006*"history"')
